%YAML 1.1
%TAG !u! tag:unity3d.com,2011:
--- !u!74 &7400000
AnimationClip:
  m_ObjectHideFlags: 0
  m_PrefabParentObject: {fileID: 0}
  m_PrefabInternal: {fileID: 0}
  m_Name: PlayerMoving
  serializedVersion: 6
  m_Legacy: 0
  m_Compressed: 0
  m_UseHighQualityCurve: 1
  m_RotationCurves: []
  m_CompressedRotationCurves: []
  m_EulerCurves: []
  m_PositionCurves:
  - curve:
      serializedVersion: 2
      m_Curve:
      - serializedVersion: 3
        time: 0
        value: {x: 0, y: 0.2, z: 0}
        inSlope: {x: 0, y: 0, z: 0}
        outSlope: {x: 0, y: 0, z: 0}
        tangentMode: 0
        weightedMode: 0
        inWeight: {x: 0, y: 0.33333334, z: 0.33333334}
        outWeight: {x: 0, y: 0.33333334, z: 0.33333334}
      m_PreInfinity: 2
      m_PostInfinity: 2
      m_RotationOrder: 4
    path: Up
  m_ScaleCurves: []
  m_FloatCurves: []
  m_PPtrCurves:
  - curve:
    - time: 0
      value: {fileID: 21300008, guid: 9bab9a0d06949194a83cd5f1b9f57b71, type: 3}
    - time: 0.1
      value: {fileID: 21300010, guid: 9bab9a0d06949194a83cd5f1b9f57b71, type: 3}
    - time: 0.2
      value: {fileID: 21300012, guid: 9bab9a0d06949194a83cd5f1b9f57b71, type: 3}
    - time: 0.3
      value: {fileID: 21300014, guid: 9bab9a0d06949194a83cd5f1b9f57b71, type: 3}
    - time: 0.4
      value: {fileID: 21300016, guid: 9bab9a0d06949194a83cd5f1b9f57b71, type: 3}
    - time: 0.5
      value: {fileID: 21300018, guid: 9bab9a0d06949194a83cd5f1b9f57b71, type: 3}
    - time: 0.6
      value: {fileID: 21300016, guid: 9bab9a0d06949194a83cd5f1b9f57b71, type: 3}
    - time: 0.7
      value: {fileID: 21300014, guid: 9bab9a0d06949194a83cd5f1b9f57b71, type: 3}
    - time: 0.8
      value: {fileID: 21300012, guid: 9bab9a0d06949194a83cd5f1b9f57b71, type: 3}
    - time: 0.9
      value: {fileID: 21300010, guid: 9bab9a0d06949194a83cd5f1b9f57b71, type: 3}
    - time: 1
      value: {fileID: 21300008, guid: 9bab9a0d06949194a83cd5f1b9f57b71, type: 3}
    attribute: m_Sprite
    path: 
    classID: 212
    script: {fileID: 0}
  m_SampleRate: 10
  m_WrapMode: 0
  m_Bounds:
    m_Center: {x: 0, y: 0, z: 0}
    m_Extent: {x: 0, y: 0, z: 0}
  m_ClipBindingConstant:
    genericBindings:
    - serializedVersion: 2
      path: 0
      attribute: 0
      script: {fileID: 0}
      typeID: 212
      customType: 23
      isPPtrCurve: 1
    - serializedVersion: 2
      path: 3591424722
      attribute: 1
      script: {fileID: 0}
      typeID: 4
      customType: 0
      isPPtrCurve: 0
    pptrCurveMapping:
    - {fileID: 21300008, guid: 9bab9a0d06949194a83cd5f1b9f57b71, type: 3}
    - {fileID: 21300010, guid: 9bab9a0d06949194a83cd5f1b9f57b71, type: 3}
    - {fileID: 21300012, guid: 9bab9a0d06949194a83cd5f1b9f57b71, type: 3}
    - {fileID: 21300014, guid: 9bab9a0d06949194a83cd5f1b9f57b71, type: 3}
    - {fileID: 21300016, guid: 9bab9a0d06949194a83cd5f1b9f57b71, type: 3}
    - {fileID: 21300018, guid: 9bab9a0d06949194a83cd5f1b9f57b71, type: 3}
    - {fileID: 21300016, guid: 9bab9a0d06949194a83cd5f1b9f57b71, type: 3}
    - {fileID: 21300014, guid: 9bab9a0d06949194a83cd5f1b9f57b71, type: 3}
    - {fileID: 21300012, guid: 9bab9a0d06949194a83cd5f1b9f57b71, type: 3}
    - {fileID: 21300010, guid: 9bab9a0d06949194a83cd5f1b9f57b71, type: 3}
    - {fileID: 21300008, guid: 9bab9a0d06949194a83cd5f1b9f57b71, type: 3}
  m_AnimationClipSettings:
    serializedVersion: 2
    m_AdditiveReferencePoseClip: {fileID: 0}
    m_AdditiveReferencePoseTime: 0
    m_StartTime: 0
    m_StopTime: 1.1
    m_OrientationOffsetY: 0
    m_Level: 0
    m_CycleOffset: 0
    m_HasAdditiveReferencePose: 0
    m_LoopTime: 1
    m_LoopBlend: 0
    m_LoopBlendOrientation: 0
    m_LoopBlendPositionY: 0
    m_LoopBlendPositionXZ: 0
    m_KeepOriginalOrientation: 0
    m_KeepOriginalPositionY: 1
    m_KeepOriginalPositionXZ: 0
    m_HeightFromFeet: 0
    m_Mirror: 0
  m_EditorCurves:
  - curve:
      serializedVersion: 2
      m_Curve:
      - serializedVersion: 3
        time: 0
        value: 0
        inSlope: 0
        outSlope: 0
        tangentMode: 136
        weightedMode: 0
        inWeight: 0
        outWeight: 0
      m_PreInfinity: 2
      m_PostInfinity: 2
      m_RotationOrder: 4
    attribute: m_LocalPosition.x
    path: Up
    classID: 4
    script: {fileID: 0}
  - curve:
      serializedVersion: 2
      m_Curve:
      - serializedVersion: 3
        time: 0
        value: 0.2
        inSlope: 0
        outSlope: 0
        tangentMode: 136
        weightedMode: 0
        inWeight: 0
        outWeight: 0
      m_PreInfinity: 2
      m_PostInfinity: 2
      m_RotationOrder: 4
    attribute: m_LocalPosition.y
    path: Up
    classID: 4
    script: {fileID: 0}
  - curve:
      serializedVersion: 2
      m_Curve:
      - serializedVersion: 3
        time: 0
        value: 0
        inSlope: 0
        outSlope: 0
        tangentMode: 136
        weightedMode: 0
        inWeight: 0
        outWeight: 0
      m_PreInfinity: 2
      m_PostInfinity: 2
      m_RotationOrder: 4
    attribute: m_LocalPosition.z
    path: Up
    classID: 4
    script: {fileID: 0}
  m_EulerEditorCurves: []
  m_HasGenericRootTransform: 0
  m_HasMotionFloatCurves: 0
  m_GenerateMotionCurves: 0
  m_Events: []
