%YAML 1.1
%TAG !u! tag:unity3d.com,2011:
--- !u!1001 &100100000
Prefab:
  m_ObjectHideFlags: 1
  serializedVersion: 2
  m_Modification:
    m_TransformParent: {fileID: 0}
    m_Modifications: []
    m_RemovedComponents: []
  m_ParentPrefab: {fileID: 0}
  m_RootGameObject: {fileID: 1619796689855582}
  m_IsPrefabParent: 1
--- !u!1 &1619796689855582
GameObject:
  m_ObjectHideFlags: 0
  m_PrefabParentObject: {fileID: 0}
  m_PrefabInternal: {fileID: 100100000}
  serializedVersion: 5
  m_Component:
  - component: {fileID: 4290638454100108}
  - component: {fileID: 114088562661925342}
  m_Layer: 22
  m_Name: BlackWhiteOverlapController
  m_TagString: Untagged
  m_Icon: {fileID: 0}
  m_NavMeshLayer: 0
  m_StaticEditorFlags: 0
  m_IsActive: 1
--- !u!4 &4290638454100108
Transform:
  m_ObjectHideFlags: 1
  m_PrefabParentObject: {fileID: 0}
  m_PrefabInternal: {fileID: 100100000}
  m_GameObject: {fileID: 1619796689855582}
  m_LocalRotation: {x: -0, y: -0, z: -0, w: 1}
  m_LocalPosition: {x: 1.895, y: -1.4, z: -4.1}
  m_LocalScale: {x: 32.215805, y: 10, z: 0}
  m_Children: []
  m_Father: {fileID: 0}
  m_RootOrder: 0
  m_LocalEulerAnglesHint: {x: 0, y: 0, z: 0}
--- !u!114 &114088562661925342
MonoBehaviour:
  m_ObjectHideFlags: 1
  m_PrefabParentObject: {fileID: 0}
  m_PrefabInternal: {fileID: 100100000}
  m_GameObject: {fileID: 1619796689855582}
  m_Enabled: 1
  m_EditorHideFlags: 0
  m_Script: {fileID: 11500000, guid: 1947bfdce2b7fb44383bb67c2dca7660, type: 3}
  m_Name: 
  m_EditorClassIdentifier: 
  BlackWhiteLeft: 0
  BlackWhiteRight: 0
  BlackWhiteUp: 0
  BlackWhiteDown: 0
  prefabX: 0
  prefabY: 0
  Prefab: {fileID: 1200941328867346, guid: 0944e21cbab9e9b4db2b61f807acc115, type: 2}
  WhiteController: {fileID: 0}
  BlackController: {fileID: 0}
  middle: {x: 0, y: 0}
  storeData: {x: 0, y: 0}
  storeSquare: {fileID: 0}
