%YAML 1.1
%TAG !u! tag:unity3d.com,2011:
--- !u!29 &1
OcclusionCullingSettings:
  m_ObjectHideFlags: 0
  serializedVersion: 2
  m_OcclusionBakeSettings:
    smallestOccluder: 5
    smallestHole: 0.25
    backfaceThreshold: 100
  m_SceneGUID: 00000000000000000000000000000000
  m_OcclusionCullingData: {fileID: 0}
--- !u!104 &2
RenderSettings:
  m_ObjectHideFlags: 0
  serializedVersion: 9
  m_Fog: 0
  m_FogColor: {r: 0.5, g: 0.5, b: 0.5, a: 1}
  m_FogMode: 3
  m_FogDensity: 0.01
  m_LinearFogStart: 0
  m_LinearFogEnd: 300
  m_AmbientSkyColor: {r: 0.212, g: 0.227, b: 0.259, a: 1}
  m_AmbientEquatorColor: {r: 0.114, g: 0.125, b: 0.133, a: 1}
  m_AmbientGroundColor: {r: 0.047, g: 0.043, b: 0.035, a: 1}
  m_AmbientIntensity: 1
  m_AmbientMode: 3
  m_SubtractiveShadowColor: {r: 0.42, g: 0.478, b: 0.627, a: 1}
  m_SkyboxMaterial: {fileID: 0}
  m_HaloStrength: 0.5
  m_FlareStrength: 1
  m_FlareFadeSpeed: 3
  m_HaloTexture: {fileID: 0}
  m_SpotCookie: {fileID: 10001, guid: 0000000000000000e000000000000000, type: 0}
  m_DefaultReflectionMode: 0
  m_DefaultReflectionResolution: 128
  m_ReflectionBounces: 1
  m_ReflectionIntensity: 1
  m_CustomReflection: {fileID: 0}
  m_Sun: {fileID: 0}
  m_IndirectSpecularColor: {r: 0, g: 0, b: 0, a: 1}
  m_UseRadianceAmbientProbe: 0
--- !u!157 &3
LightmapSettings:
  m_ObjectHideFlags: 0
  serializedVersion: 11
  m_GIWorkflowMode: 1
  m_GISettings:
    serializedVersion: 2
    m_BounceScale: 1
    m_IndirectOutputScale: 1
    m_AlbedoBoost: 1
    m_EnvironmentLightingMode: 0
    m_EnableBakedLightmaps: 0
    m_EnableRealtimeLightmaps: 0
  m_LightmapEditorSettings:
    serializedVersion: 10
    m_Resolution: 2
    m_BakeResolution: 40
    m_AtlasSize: 1024
    m_AO: 0
    m_AOMaxDistance: 1
    m_CompAOExponent: 1
    m_CompAOExponentDirect: 0
    m_Padding: 2
    m_LightmapParameters: {fileID: 0}
    m_LightmapsBakeMode: 1
    m_TextureCompression: 1
    m_FinalGather: 0
    m_FinalGatherFiltering: 1
    m_FinalGatherRayCount: 256
    m_ReflectionCompression: 2
    m_MixedBakeMode: 2
    m_BakeBackend: 1
    m_PVRSampling: 1
    m_PVRDirectSampleCount: 32
    m_PVRSampleCount: 500
    m_PVRBounces: 2
    m_PVRFilterTypeDirect: 0
    m_PVRFilterTypeIndirect: 0
    m_PVRFilterTypeAO: 0
    m_PVRFilteringMode: 1
    m_PVRCulling: 1
    m_PVRFilteringGaussRadiusDirect: 1
    m_PVRFilteringGaussRadiusIndirect: 5
    m_PVRFilteringGaussRadiusAO: 2
    m_PVRFilteringAtrousPositionSigmaDirect: 0.5
    m_PVRFilteringAtrousPositionSigmaIndirect: 2
    m_PVRFilteringAtrousPositionSigmaAO: 1
    m_ShowResolutionOverlay: 1
  m_LightingDataAsset: {fileID: 0}
  m_UseShadowmask: 1
--- !u!196 &4
NavMeshSettings:
  serializedVersion: 2
  m_ObjectHideFlags: 0
  m_BuildSettings:
    serializedVersion: 2
    agentTypeID: 0
    agentRadius: 0.5
    agentHeight: 2
    agentSlope: 45
    agentClimb: 0.4
    ledgeDropHeight: 0
    maxJumpAcrossDistance: 0
    minRegionArea: 2
    manualCellSize: 0
    cellSize: 0.16666667
    manualTileSize: 0
    tileSize: 256
    accuratePlacement: 0
    debug:
      m_Flags: 0
  m_NavMeshData: {fileID: 0}
--- !u!1001 &238521328
PrefabInstance:
  m_ObjectHideFlags: 0
  serializedVersion: 2
  m_Modification:
    m_TransformParent: {fileID: 0}
    m_Modifications:
    - target: {fileID: 4889117917325866, guid: c9ed267c0aff99644859dc5a574d606f, type: 3}
      propertyPath: m_LocalPosition.x
      value: 0
      objectReference: {fileID: 0}
    - target: {fileID: 4889117917325866, guid: c9ed267c0aff99644859dc5a574d606f, type: 3}
      propertyPath: m_LocalPosition.y
      value: 0
      objectReference: {fileID: 0}
    - target: {fileID: 4889117917325866, guid: c9ed267c0aff99644859dc5a574d606f, type: 3}
      propertyPath: m_LocalPosition.z
      value: 0
      objectReference: {fileID: 0}
    - target: {fileID: 4889117917325866, guid: c9ed267c0aff99644859dc5a574d606f, type: 3}
      propertyPath: m_LocalRotation.x
      value: 0
      objectReference: {fileID: 0}
    - target: {fileID: 4889117917325866, guid: c9ed267c0aff99644859dc5a574d606f, type: 3}
      propertyPath: m_LocalRotation.y
      value: 0
      objectReference: {fileID: 0}
    - target: {fileID: 4889117917325866, guid: c9ed267c0aff99644859dc5a574d606f, type: 3}
      propertyPath: m_LocalRotation.z
      value: 0
      objectReference: {fileID: 0}
    - target: {fileID: 4889117917325866, guid: c9ed267c0aff99644859dc5a574d606f, type: 3}
      propertyPath: m_LocalRotation.w
      value: 1
      objectReference: {fileID: 0}
    - target: {fileID: 4889117917325866, guid: c9ed267c0aff99644859dc5a574d606f, type: 3}
      propertyPath: m_RootOrder
      value: 1
      objectReference: {fileID: 0}
    m_RemovedComponents: []
  m_SourcePrefab: {fileID: 100100000, guid: c9ed267c0aff99644859dc5a574d606f, type: 3}
--- !u!114 &238521329 stripped
MonoBehaviour:
  m_CorrespondingSourceObject: {fileID: 114586186002528382, guid: c9ed267c0aff99644859dc5a574d606f,
    type: 3}
  m_PrefabInstance: {fileID: 238521328}
  m_PrefabAsset: {fileID: 0}
  m_GameObject: {fileID: 0}
  m_Enabled: 1
  m_EditorHideFlags: 0
  m_Script: {fileID: 11500000, guid: 1d359e2dfc702c1429c2ece90cad536d, type: 3}
  m_Name: 
  m_EditorClassIdentifier: 
--- !u!114 &363535933 stripped
MonoBehaviour:
  m_CorrespondingSourceObject: {fileID: 114842419223278822, guid: 8f4cf141059d7d447b5cc5161ba69c46,
    type: 3}
  m_PrefabInstance: {fileID: 912040031}
  m_PrefabAsset: {fileID: 0}
  m_GameObject: {fileID: 0}
  m_Enabled: 1
  m_EditorHideFlags: 0
  m_Script: {fileID: 11500000, guid: ff985dc3184402c47921285d4f596852, type: 3}
  m_Name: 
  m_EditorClassIdentifier: 
--- !u!1001 &912040031
PrefabInstance:
  m_ObjectHideFlags: 0
  serializedVersion: 2
  m_Modification:
    m_TransformParent: {fileID: 0}
    m_Modifications:
    - target: {fileID: 4750619881488732, guid: 8f4cf141059d7d447b5cc5161ba69c46, type: 3}
      propertyPath: m_LocalPosition.x
      value: -3.01
      objectReference: {fileID: 0}
    - target: {fileID: 4750619881488732, guid: 8f4cf141059d7d447b5cc5161ba69c46, type: 3}
      propertyPath: m_LocalPosition.y
      value: -11.63
      objectReference: {fileID: 0}
    - target: {fileID: 4750619881488732, guid: 8f4cf141059d7d447b5cc5161ba69c46, type: 3}
      propertyPath: m_LocalPosition.z
      value: 0
      objectReference: {fileID: 0}
    - target: {fileID: 4750619881488732, guid: 8f4cf141059d7d447b5cc5161ba69c46, type: 3}
      propertyPath: m_LocalRotation.x
      value: -0
      objectReference: {fileID: 0}
    - target: {fileID: 4750619881488732, guid: 8f4cf141059d7d447b5cc5161ba69c46, type: 3}
      propertyPath: m_LocalRotation.y
      value: -0
      objectReference: {fileID: 0}
    - target: {fileID: 4750619881488732, guid: 8f4cf141059d7d447b5cc5161ba69c46, type: 3}
      propertyPath: m_LocalRotation.z
      value: -0
      objectReference: {fileID: 0}
    - target: {fileID: 4750619881488732, guid: 8f4cf141059d7d447b5cc5161ba69c46, type: 3}
      propertyPath: m_LocalRotation.w
      value: 1
      objectReference: {fileID: 0}
    - target: {fileID: 4750619881488732, guid: 8f4cf141059d7d447b5cc5161ba69c46, type: 3}
      propertyPath: m_RootOrder
      value: 3
      objectReference: {fileID: 0}
    m_RemovedComponents: []
  m_SourcePrefab: {fileID: 100100000, guid: 8f4cf141059d7d447b5cc5161ba69c46, type: 3}
--- !u!1001 &921449993
PrefabInstance:
  m_ObjectHideFlags: 0
  serializedVersion: 2
  m_Modification:
    m_TransformParent: {fileID: 0}
    m_Modifications:
    - target: {fileID: 1662393632021582, guid: 0d2518f35e88d374f96004cf378fc012, type: 3}
      propertyPath: m_Name
      value: test_level_06
      objectReference: {fileID: 0}
    - target: {fileID: 4078862235580358, guid: 0d2518f35e88d374f96004cf378fc012, type: 3}
      propertyPath: m_LocalPosition.x
      value: 0
      objectReference: {fileID: 0}
    - target: {fileID: 4078862235580358, guid: 0d2518f35e88d374f96004cf378fc012, type: 3}
      propertyPath: m_LocalPosition.y
      value: 0
      objectReference: {fileID: 0}
    - target: {fileID: 4078862235580358, guid: 0d2518f35e88d374f96004cf378fc012, type: 3}
      propertyPath: m_LocalPosition.z
      value: 0
      objectReference: {fileID: 0}
    - target: {fileID: 4078862235580358, guid: 0d2518f35e88d374f96004cf378fc012, type: 3}
      propertyPath: m_LocalRotation.x
      value: 0
      objectReference: {fileID: 0}
    - target: {fileID: 4078862235580358, guid: 0d2518f35e88d374f96004cf378fc012, type: 3}
      propertyPath: m_LocalRotation.y
      value: 0
      objectReference: {fileID: 0}
    - target: {fileID: 4078862235580358, guid: 0d2518f35e88d374f96004cf378fc012, type: 3}
      propertyPath: m_LocalRotation.z
      value: 0
      objectReference: {fileID: 0}
    - target: {fileID: 4078862235580358, guid: 0d2518f35e88d374f96004cf378fc012, type: 3}
      propertyPath: m_LocalRotation.w
      value: 1
      objectReference: {fileID: 0}
    - target: {fileID: 4078862235580358, guid: 0d2518f35e88d374f96004cf378fc012, type: 3}
      propertyPath: m_RootOrder
      value: 4
      objectReference: {fileID: 0}
    - target: {fileID: 114221714497495576, guid: 0d2518f35e88d374f96004cf378fc012,
        type: 3}
      propertyPath: levelManagerController
      value: 
      objectReference: {fileID: 238521329}
    - target: {fileID: 114221714497495576, guid: 0d2518f35e88d374f96004cf378fc012,
        type: 3}
      propertyPath: playerController
      value: 
      objectReference: {fileID: 363535933}
    m_RemovedComponents: []
  m_SourcePrefab: {fileID: 100100000, guid: 0d2518f35e88d374f96004cf378fc012, type: 3}
--- !u!1001 &1359733806
PrefabInstance:
  m_ObjectHideFlags: 0
  serializedVersion: 2
  m_Modification:
    m_TransformParent: {fileID: 0}
    m_Modifications:
    - target: {fileID: 4775477755435694, guid: 408338a7250e8b84bb66e727c77b9c28, type: 3}
      propertyPath: m_LocalPosition.x
      value: 0
      objectReference: {fileID: 0}
    - target: {fileID: 4775477755435694, guid: 408338a7250e8b84bb66e727c77b9c28, type: 3}
      propertyPath: m_LocalPosition.y
      value: 0
      objectReference: {fileID: 0}
    - target: {fileID: 4775477755435694, guid: 408338a7250e8b84bb66e727c77b9c28, type: 3}
      propertyPath: m_LocalPosition.z
      value: 0
      objectReference: {fileID: 0}
    - target: {fileID: 4775477755435694, guid: 408338a7250e8b84bb66e727c77b9c28, type: 3}
      propertyPath: m_LocalRotation.x
      value: 0
      objectReference: {fileID: 0}
    - target: {fileID: 4775477755435694, guid: 408338a7250e8b84bb66e727c77b9c28, type: 3}
      propertyPath: m_LocalRotation.y
      value: 0
      objectReference: {fileID: 0}
    - target: {fileID: 4775477755435694, guid: 408338a7250e8b84bb66e727c77b9c28, type: 3}
      propertyPath: m_LocalRotation.z
      value: 0
      objectReference: {fileID: 0}
    - target: {fileID: 4775477755435694, guid: 408338a7250e8b84bb66e727c77b9c28, type: 3}
      propertyPath: m_LocalRotation.w
      value: 1
      objectReference: {fileID: 0}
    - target: {fileID: 4775477755435694, guid: 408338a7250e8b84bb66e727c77b9c28, type: 3}
      propertyPath: m_RootOrder
      value: 2
      objectReference: {fileID: 0}
    - target: {fileID: 224832883179498516, guid: 408338a7250e8b84bb66e727c77b9c28,
        type: 3}
      propertyPath: m_AnchorMax.x
      value: 0
      objectReference: {fileID: 0}
    - target: {fileID: 224832883179498516, guid: 408338a7250e8b84bb66e727c77b9c28,
        type: 3}
      propertyPath: m_AnchorMax.y
      value: 0
      objectReference: {fileID: 0}
    - target: {fileID: 224612831724432366, guid: 408338a7250e8b84bb66e727c77b9c28,
        type: 3}
      propertyPath: m_AnchorMin.x
      value: 0
      objectReference: {fileID: 0}
    - target: {fileID: 224612831724432366, guid: 408338a7250e8b84bb66e727c77b9c28,
        type: 3}
      propertyPath: m_AnchorMax.x
      value: 0
      objectReference: {fileID: 0}
    - target: {fileID: 224612831724432366, guid: 408338a7250e8b84bb66e727c77b9c28,
        type: 3}
      propertyPath: m_AnchorMax.y
      value: 0
      objectReference: {fileID: 0}
    - target: {fileID: 4704967043181756, guid: 408338a7250e8b84bb66e727c77b9c28, type: 3}
      propertyPath: m_LocalPosition.y
      value: -10
      objectReference: {fileID: 0}
    m_RemovedComponents: []
  m_SourcePrefab: {fileID: 100100000, guid: 408338a7250e8b84bb66e727c77b9c28, type: 3}
--- !u!1001 &2250905200183107332
PrefabInstance:
  m_ObjectHideFlags: 0
  serializedVersion: 2
  m_Modification:
    m_TransformParent: {fileID: 0}
    m_Modifications:
    - target: {fileID: 2251568314496702035, guid: dd3acc019859e5c4c960bc78db2c54a6,
        type: 3}
      propertyPath: m_Name
      value: earth_level_06
      objectReference: {fileID: 0}
    - target: {fileID: 2247914765147091607, guid: dd3acc019859e5c4c960bc78db2c54a6,
        type: 3}
      propertyPath: m_LocalPosition.x
      value: 0
      objectReference: {fileID: 0}
    - target: {fileID: 2247914765147091607, guid: dd3acc019859e5c4c960bc78db2c54a6,
        type: 3}
      propertyPath: m_LocalPosition.y
      value: 0
      objectReference: {fileID: 0}
    - target: {fileID: 2247914765147091607, guid: dd3acc019859e5c4c960bc78db2c54a6,
        type: 3}
      propertyPath: m_LocalPosition.z
      value: 0
      objectReference: {fileID: 0}
    - target: {fileID: 2247914765147091607, guid: dd3acc019859e5c4c960bc78db2c54a6,
        type: 3}
      propertyPath: m_LocalRotation.x
      value: 0
      objectReference: {fileID: 0}
    - target: {fileID: 2247914765147091607, guid: dd3acc019859e5c4c960bc78db2c54a6,
        type: 3}
      propertyPath: m_LocalRotation.y
      value: 0
      objectReference: {fileID: 0}
    - target: {fileID: 2247914765147091607, guid: dd3acc019859e5c4c960bc78db2c54a6,
        type: 3}
      propertyPath: m_LocalRotation.z
      value: 0
      objectReference: {fileID: 0}
    - target: {fileID: 2247914765147091607, guid: dd3acc019859e5c4c960bc78db2c54a6,
        type: 3}
      propertyPath: m_LocalRotation.w
      value: 1
      objectReference: {fileID: 0}
    - target: {fileID: 2247914765147091607, guid: dd3acc019859e5c4c960bc78db2c54a6,
        type: 3}
      propertyPath: m_RootOrder
      value: 0
      objectReference: {fileID: 0}
    - target: {fileID: 2247914765147091607, guid: dd3acc019859e5c4c960bc78db2c54a6,
        type: 3}
      propertyPath: m_LocalEulerAnglesHint.x
      value: 0
      objectReference: {fileID: 0}
    - target: {fileID: 2247914765147091607, guid: dd3acc019859e5c4c960bc78db2c54a6,
        type: 3}
      propertyPath: m_LocalEulerAnglesHint.y
      value: 0
      objectReference: {fileID: 0}
    - target: {fileID: 2247914765147091607, guid: dd3acc019859e5c4c960bc78db2c54a6,
        type: 3}
      propertyPath: m_LocalEulerAnglesHint.z
      value: 0
      objectReference: {fileID: 0}
    - target: {fileID: 2208042687375316533, guid: dd3acc019859e5c4c960bc78db2c54a6,
        type: 3}
      propertyPath: controller
      value: 
      objectReference: {fileID: 238521329}
    m_RemovedComponents: []
  m_SourcePrefab: {fileID: 100100000, guid: dd3acc019859e5c4c960bc78db2c54a6, type: 3}
